---
source: borsh-derive/src/internals/schema/enums/mod.rs
expression: pretty_print_syn_str(&actual).unwrap()
---
impl<W, U, C> borsh::BorshSchema for A<W, U, C>
where
    U: borsh::BorshSchema,
    C: borsh::BorshSchema,
{
    fn declaration() -> borsh::schema::Declaration {
        let params = borsh::__private::maybestd::vec![
            < U as borsh::BorshSchema > ::declaration(), < C as borsh::BorshSchema >
            ::declaration()
        ];
        format!(r#"{}<{}>"#, "A", params.join(", "))
    }
    fn add_definitions_recursively(
        definitions: &mut borsh::__private::maybestd::collections::BTreeMap<
            borsh::schema::Declaration,
            borsh::schema::Definition,
        >,
    ) {
        #[allow(dead_code)]
        #[derive(borsh::BorshSchema)]
        #[borsh(crate = "borsh")]
        struct ABacon;
        #[allow(dead_code)]
        #[derive(borsh::BorshSchema)]
        #[borsh(crate = "borsh")]
        struct AEggs;
        #[allow(dead_code)]
        #[derive(borsh::BorshSchema)]
        #[borsh(crate = "borsh")]
        struct ASalad<C>(Tomatoes, C, Oil);
        #[allow(dead_code)]
        #[derive(borsh::BorshSchema)]
        #[borsh(crate = "borsh")]
        struct ASausage<W, U> {
            #[borsh(skip)]
            wrapper: W,
            filling: Filling,
            unexpected: U,
        }
        <ABacon as borsh::BorshSchema>::add_definitions_recursively(definitions);
        <AEggs as borsh::BorshSchema>::add_definitions_recursively(definitions);
        <ASalad<C> as borsh::BorshSchema>::add_definitions_recursively(definitions);
        <ASausage<W, U> as borsh::BorshSchema>::add_definitions_recursively(definitions);
        let discriminant_0: u8 = 0u8;
        let discriminant_1: u8 = 1u8;
        let discriminant_2: u8 = 2u8;
        let discriminant_3: u8 = 3u8;
        let definition = borsh::schema::Definition::Enum {
            tag_width: 1,
            variants: borsh::__private::maybestd::vec![
                (discriminant_0 as i64, "Bacon".to_string(), < ABacon as
                borsh::BorshSchema > ::declaration()), (discriminant_1 as i64, "Eggs"
                .to_string(), < AEggs as borsh::BorshSchema > ::declaration()),
                (discriminant_2 as i64, "Salad".to_string(), < ASalad < C > as
                borsh::BorshSchema > ::declaration()), (discriminant_3 as i64, "Sausage"
                .to_string(), < ASausage < W, U > as borsh::BorshSchema >
                ::declaration())
            ],
        };
        borsh::schema::add_definition(
            <Self as borsh::BorshSchema>::declaration(),
            definition,
            definitions,
        );
    }
}

